^E:\WORKSPACE\VS_WORKSPACE\P5_SERVICES\GENERATED FILES\SOAPC.CPP|E:\WORKSPACE\VS_WORKSPACE\P5_SERVICES\GENERATED FILES\SOAPCALCPROXY.CPP|E:\WORKSPACE\VS_WORKSPACE\P5_SERVICES\P5_SERVICES\SERVICEMAIN.CPP|E:\WORKSPACE\VS_WORKSPACE\P5_SERVICES\STDSOAP2.CPP
E:\WORKSPACE\VS_WORKSPACE\P5_SERVICES\P5_SERVICES\X64\DEBUG\SOAPC.OBJ
E:\WORKSPACE\VS_WORKSPACE\P5_SERVICES\P5_SERVICES\X64\DEBUG\SOAPCALCPROXY.OBJ
E:\WORKSPACE\VS_WORKSPACE\P5_SERVICES\P5_SERVICES\X64\DEBUG\STDSOAP2.OBJ
E:\WORKSPACE\VS_WORKSPACE\P5_SERVICES\P5_SERVICES\X64\DEBUG\SERVICEMAIN.OBJ
^E:\WORKSPACE\VS_WORKSPACE\P5_SERVICES\GENERATED FILES\SOAPC.CPP
E:\WORKSPACE\VS_WORKSPACE\P5_SERVICES\P5_SERVICES\X64\DEBUG\VC110.PDB
^E:\WORKSPACE\VS_WORKSPACE\P5_SERVICES\GENERATED FILES\SOAPCALCPROXY.CPP
E:\WORKSPACE\VS_WORKSPACE\P5_SERVICES\P5_SERVICES\X64\DEBUG\VC110.PDB
^E:\WORKSPACE\VS_WORKSPACE\P5_SERVICES\STDSOAP2.CPP
E:\WORKSPACE\VS_WORKSPACE\P5_SERVICES\P5_SERVICES\X64\DEBUG\VC110.PDB
^E:\WORKSPACE\VS_WORKSPACE\P5_SERVICES\P5_SERVICES\SERVICEMAIN.CPP
E:\WORKSPACE\VS_WORKSPACE\P5_SERVICES\P5_SERVICES\X64\DEBUG\VC110.PDB
E:\WORKSPACE\VS_WORKSPACE\P5_SERVICES\P5_SERVICES\X64\DEBUG\SERVICEMAIN.OBJ
